Place,Name,BirthDate,Sex,BirthYear,Age,State,Equipment,Tested,Division,BodyweightKg,WeightClassKg,Squat1Kg,Squat2Kg,Squat3Kg,Best3SquatKg,Bench1Kg,Bench2Kg,Bench3Kg,Bench4Kg,Best3BenchKg,Deadlift1Kg,Deadlift2Kg,Deadlift3Kg,Best3DeadliftKg,TotalKg,Event
1,Priscilla Rozic,,F,2005,17,PA,Raw,,TJ16-17,58.8,60,108,117,121,121,55,62,-67,,62,135,147,155,155,338,SBD
1,Alexis Zilavy,,F,2004,19,PA,Raw,,TJ18-19,47.5,48,62,72,79,79,35,40,-42,,40,85,-95,-95,85,204,SBD
1,Kayla Peterson,,F,2001,22,OH,Raw,,TJ20-23,54.2,56,88,94,100,100,43,-46,-46,,43,84,92,-98,92,235,SBD
1,Olivia Blas,,F,2003,20,NY,Raw,,TJ20-23,93.9,100,125,-132,132,132,60,-65,-65,,60,115,123,128,128,320,SBD
1,Alexis Zilavy,,F,2004,19,PA,Raw,,TOpen,47.5,48,62,72,79,79,35,40,-42,,40,85,-95,-95,85,204,SBD
1,Caroline Harpel,,F,1996,26,PA,Raw,,TOpen,53.4,56,110,122,130,130,62,66,70,,70,130,141,151,151,351,SBD
2,Kayla Peterson,,F,2001,22,OH,Raw,,TOpen,54.2,56,88,94,100,100,43,-46,-46,,43,84,92,-98,92,235,SBD
1,Jessa Covine,,F,1995,28,PA,Raw,,TOpen,66.8,67.5,100,108,127,127,68,-75,-75,,68,150,162,170,170,365,SBD
2,Caitlin Binder,,F,1994,29,OH,Raw,,TOpen,64,67.5,121,124,125,125,44,48,-55,,48,145,158,-173,158,331,SBD
1,Brittany Keller,,F,1996,26,PA,Raw,,TOpen,74.4,75,102,107,-109,107,52,-54,-54,,52,113,123,128,128,287,SBD
1,Cheyenne Neff,,F,1997,26,OH,Raw,,TOpen,78.6,82.5,115,-120,-120,115,57,-59,-59,,57,132,-137,137,137,309,SBD
1,Marissa Buccilli,,F,1994,29,VA,Raw,,TOpen,88.6,90,87,97,104,104,52,-56,-56,,52,103,112,123,123,279,SBD
1,Crystal Downey,,F,1991,32,PA,Raw,,TOpen,107.7,110,105,115,-125,115,62,-68,68,,68,132,143,152,152,335,SBD
DQ,Lydia Sienicki,,F,1993,30,,Raw,,TOpen,109,110,-133,-137,137,137,-76,-76,-76,,,130,145,-156,145,,SBD
1,Jennifer Cooke,,F,1996,27,,Raw,,Open,66.5,67.5,115,122,127,127,-70,70,78,,78,165,175,180,180,385,SBD
1,Jack Hunter,,M,2008,15,PA,Raw,,TJ13-15,73.9,75,166,175,-182,175,-125,125,-130,,125,175,186,-196,186,486,SBD
1,Andrew Tavoc,,M,2007,16,PA,Raw,,TJ16-17,69.3,75,150,163,166,166,118,128,-131,,128,166,177,184,184,478,SBD
2,Ayden Amsley,,M,2006,16,PA,Raw,,TJ16-17,74.7,75,100,125,145,145,-110,-118,125,-132,125,140,-175,200,200,470,SBD
1,Gavin Boiteau,,M,2006,17,PA,Raw,,TJ16-17,81.4,82.5,165,-172,-182,165,98,105,-112,,105,171,180,189,189,459,SBD
1,Kassidy Yuzon,,M,2008,15,PA,Raw,,TJ13-15,86.6,90,201,212,220,220,104,109,-113,,109,195,208,213,213,542,SBD
1,Sabastian Dietrich,,M,2004,18,PA,Raw,,TJ18-19,79.4,82.5,175,185,190,190,95,-100,,,95,205,219,227,227,512,SBD
2,Cisco Dietrich,,M,2005,18,PA,Raw,,TJ18-19,81.5,82.5,130,140,-143,140,80,84,-90,,84,140,-150,,140,364,SBD
1,Ryan Gillis #2,,M,2000,23,PA,Raw,,TJ20-23,73.3,75,160,170,180,180,100,107,110,,110,235,257,275,275,565,SBD
1,Nick Knotts,,M,2001,22,,Raw,,TJ20-23,78.1,82.5,127,137,-141,137,72,80,83,,83,195,211,220,220,440,SBD
1,Geordan Saunders,,M,2001,22,OH,Raw,,TJ20-23,88.6,90,161,177,-190,177,124,-135,-135,,124,240,258,-262,258,559,SBD
2,Francisco Estrada IV,,M,2000,22,NJ,Raw,,TJ20-23,89.6,90,161,175,182,182,120,130,137,,137,204,220,227,227,546,SBD
1,Peyton Mrakovich,,M,2002,20,OH,Raw,,TJ20-23,96.4,100,235,243,252,252,140,147,-155,,147,270,282,291,291,690,SBD
DQ,Nicholas Neira,,M,2003,20,,Raw,,TJ20-23,94.1,100,210,216,229,229,-118,118,-128,,118,-206,,,,,SBD
1,Salvatore Insana,,M,1981,42,PA,Raw,,TM40-44,81.1,82.5,120,125,131,131,-118,118,-123,,118,154,164,170,170,419,SBD
1,Adrian Scarpari,,M,1973,50,PA,Raw,,TM50-54,73,75,116,129,141,141,98,106,111,,111,176,193,-202,193,445,SBD
2,Eric Forsythe,,M,1971,52,,Raw,,TM50-54,74.8,75,115,123,132,132,97,102,-107,,102,143,155,-173,155,389,SBD
1,Stephen Buccilli,,M,1969,53,PA,Raw,,TM50-54,143.6,140+,240,259,-273,259,134,-146,146,,146,240,250,261,261,666,SBD
1,Benjamin Weinberger,,M,1996,26,PA,Raw,,TOpen,62.7,67.5,185,194,-197,194,125,132,-136,,132,220,230,237,237,563,SBD
1,Ian Hunter,,M,1993,30,,Raw,,TOpen,80.4,82.5,200,214,-227,214,107,113,-118,,113,215,233,243,243,570,SBD
2,Nick Knotts,,M,2001,22,,Raw,,TOpen,78.1,82.5,127,137,-141,137,72,80,83,,83,195,211,220,220,440,SBD
1,Geordan Saunders,,M,2001,22,OH,Raw,,TOpen,88.6,90,161,177,-190,177,124,-135,-135,,124,240,258,-262,258,559,SBD
2,Ajinkya Rai,,M,1998,25,PA,Raw,,TOpen,89.7,90,184,-193,-193,184,112,120,-128,,120,-198,217,227,227,531,SBD
1,Zachary McDaniel,,M,1992,31,,Raw,,TOpen,97.8,100,273,288,298,298,147,158,-168,,158,-273,288,-295,288,744,SBD
2,Lucas Rankin,,M,1997,26,PA,Raw,,TOpen,98,100,230,239,245,245,155,159,162,,162,257,266,274,274,681,SBD
3,Aaron Clineman,,M,1994,29,PA,Raw,,TOpen,97.3,100,189,202,213,213,143,157,161,,161,247,265,273,273,647,SBD
4,Andrew Ziegler,,M,1999,24,PA,Raw,,TOpen,96.9,100,220,233,245,245,130,137,145,,145,234,243,-267,243,633,SBD
1,Brandon Beachy,,M,1999,24,OH,Raw,,TOpen,107.6,110,214,227,-236,227,134,143,-152,,143,282,300,-310,300,670,SBD
2,Austin Unger,,M,1995,27,WV,Raw,,TOpen,109.4,110,160,175,189,189,113,120,-124,,120,203,216,227,227,536,SBD
1,Elliot Carnevale,,M,1988,34,,Raw,,TOpen,121.5,125,205,220,230,230,133,144,150,,150,213,239,256,256,636,SBD
2,Kevin Fink,,M,1995,28,PA,Raw,,TOpen,116.4,125,116,125,142,142,84,93,102,,102,165,184,-188,184,428,SBD
1,Kevin Loadman,,M,1976,46,,Raw,,TOpen,162.7,140+,240,260,268,268,152,162,168,,168,250,277,291,291,727,SBD
1,Brian Steinmiller,,M,1988,35,PA,Raw,,TS35-39,92.3,100,165,177,191,191,115,-120,-127,,115,205,223,-235,223,529,SBD
1,Dominic Mandarino,,M,1995,28,PA,Raw,,Open,88.4,90,216,223,-227,223,132,137,143,,143,260,273,-279,273,639,SBD
2,Joseph Schierberl,,M,1993,30,,Raw,,Open,83.2,90,177,195,-200,195,110,-119,121,,121,210,224,230,230,546,SBD
1,Weston Woods,,M,1999,24,,Raw,,Open,98,100,183,195,207,207,133,141,-147,,141,220,240,-248,240,588,SBD
1,Sam Neira Jr,,M,1998,25,OH,Raw,,Open,108.2,110,230,240,-243,240,185,-190,190,,190,230,240,-251,240,670,SBD
2,Shane Palmer,,M,1998,25,MD,Raw,,Open,106.6,110,195,215,-229,215,147,163,-177,,163,145,165,185,185,563,SBD
1,Matthew Sostrin,,M,2001,22,NY,Raw,,TJ20-23,115.2,125,,,,,137,-143,,,137,,,,,137,B
1,David Pace,,M,1968,55,PA,Raw,,TM55-59,79,82.5,,,,,110,118,123,,123,,,,,123,B
1,Nick Knotts,,M,2001,22,,Raw,,TJ20-23,78.1,82.5,,,,,,,,,,195,211,220,220,220,D
1,Geordan Saunders,,M,2001,22,OH,Raw,,TJ20-23,88.6,90,,,,,,,,,,240,258,-262,258,258,D
1,Nick Knotts,,M,2001,22,,Raw,,TOpen,78.1,82.5,,,,,,,,,,195,211,220,220,220,D
1,Shafran Shurid,,M,1997,26,,Wraps,,TOpen,90,90,166,176,-184,176,-116,116,-119,,116,184,202,-214,202,494,SBD
1,Dylan Borland,,M,1999,24,,Wraps,,Open,107.1,110,225,240,250,250,143,147,157,,157,231,247,-274,247,654,SBD
1,Bebenin Grigoriy,,M,1993,30,PA,Wraps,,Open,123.6,125,350,370,-385,370,185,200,205,,205,285,305,315,315,890,SBD
1,Robert Gregory,,M,1971,51,PA,Single-ply,,TM50-54,73.9,75,,,,,,,,,,227,-231,-231,227,227,D
